A. J. Stewart Lange R workshops
…
mpg %>% 
  select(manufacturer)

## # A tibble: 234 x 1
##    manufacturer
##    <chr>       
##  1 audi        
##  2 audi        
##  3 audi        
##  4 audi        
##  5 audi        
##  6 audi        
##  7 audi        
##  8 audi        
##  9 audi        
## 10 audi        
## # ... with 224 more rows
…
mpg %>%
  filter(manufacturer == "honda" | manufacturer == "audi")  # | = 'or'

## # A tibble: 27 x 11
##    manufacturer model      displ  year   cyl trans drv     cty   hwy fl    class
##    <chr>        <chr>      <dbl> <int> <int> <chr> <chr> <int> <int> <chr> <chr>
##  1 audi         a4           1.8  1999     4 auto~ f        18    29 p     comp~
##  2 audi         a4           1.8  1999     4 manu~ f        21    29 p     comp~
##  3 audi         a4           2    2008     4 manu~ f        20    31 p     comp~
##  4 audi         a4           2    2008     4 auto~ f        21    30 p     comp~
##  5 audi         a4           2.8  1999     6 auto~ f        16    26 p     comp~
##  6 audi         a4           2.8  1999     6 manu~ f        18    26 p     comp~
##  7 audi         a4           3.1  2008     6 auto~ f        18    27 p     comp~
##  8 audi         a4 quattro   1.8  1999     4 manu~ 4        18    26 p     comp~
##  9 audi         a4 quattro   1.8  1999     4 auto~ 4        16    25 p     comp~
## 10 audi         a4 quattro   2    2008     4 manu~ 4        20    28 p     comp~
## # ... with 17 more rows
…
## # A tibble: 5 x 4
##   manufacturer  year   cty   hwy
##   <chr>        <int> <int> <int>
## 1 honda         1999    28    33
## 2 honda         1999    24    32
## 3 honda         1999    25    32
## 4 honda         1999    23    29
## 5 honda         1999    24    32

mpg %>%
  mutate(manufacturer = str_to_title(manufacturer), 
         model = str_to_title(model)) %>%
  select(manufacturer, model, year, trans, hwy)

## # A tibble: 234 x 5
##    manufacturer model       year trans        hwy
##    <chr>        <chr>      <int> <chr>      <int>
##  1 Audi         A4          1999 auto(l5)      29
##  2 Audi         A4          1999 manual(m5)    29
##  3 Audi         A4          2008 manual(m6)    31
##  4 Audi         A4          2008 auto(av)      30
##  5 Audi         A4          1999 auto(l5)      26
##  6 Audi         A4          1999 manual(m5)    26
##  7 Audi         A4          2008 auto(av)      27
##  8 Audi         A4 Quattro  1999 manual(m5)    26
##  9 Audi         A4 Quattro  1999 auto(l5)      25
## 10 Audi         A4 Quattro  2008 manual(m6)    28
## # ... with 224 more rows
…
mpg %>%
  group_by(manufacturer) %>%
  mutate(mean_hwy = mean(hwy), sd_hwy = sd(hwy)) %>%
  select(-class, -trans)

## # A tibble: 234 x 11
## # Groups:   manufacturer [15]
##    manufacturer model  displ  year   cyl drv     cty   hwy fl    mean_hwy sd_hwy
##    <chr>        <chr>  <dbl> <int> <int> <chr> <int> <int> <chr>    <dbl>  <dbl>
##  1 audi         a4       1.8  1999     4 f        18    29 p         26.4   2.18
##  2 audi         a4       1.8  1999     4 f        21    29 p         26.4   2.18
##  3 audi         a4       2    2008     4 f        20    31 p         26.4   2.18
##  4 audi         a4       2    2008     4 f        21    30 p         26.4   2.18
##  5 audi         a4       2.8  1999     6 f        16    26 p         26.4   2.18
##  6 audi         a4       2.8  1999     6 f        18    26 p         26.4   2.18
##  7 audi         a4       3.1  2008     6 f        18    27 p         26.4   2.18
##  8 audi         a4 qu~   1.8  1999     4 4        18    26 p         26.4   2.18
##  9 audi         a4 qu~   1.8  1999     4 4        16    25 p         26.4   2.18
## 10 audi         a4 qu~   2    2008     4 4        20    28 p         26.4   2.18
## # ... with 224 more rows
…
